# This file uses meters as units for non-parametric coordinates.

mtllib aceradoRec.mtl
g default
v -200.000000 13.611019 -200.000000
v -200.000000 13.611020 200.000000
v 200.000000 -0.000002 -200.000000
v 200.000000 -0.000001 200.000000
v 200.000000 11.839899 -200.000000
v 198.228882 13.611019 -200.000000
v 198.228882 13.611020 200.000000
v 200.000000 11.839900 200.000000
v 148.450317 13.611020 200.000000
v 148.450317 13.611019 -200.000000
vt 0.993756 0.001921
vt 0.993756 0.962235
vt 0.965331 0.962235
vt 0.965331 0.001921
vt 0.998008 0.962235
vt 0.998008 0.001921
vt 0.001992 0.001921
vt 0.958055 0.001921
vt 0.958055 0.962235
vt 0.001992 0.962235
vt 0.838547 0.962235
vt 0.838547 0.001921
vn 0.000000 1.000000 -0.000000
vn 0.000000 1.000000 -0.000000
vn 0.034337 0.999410 -0.000000
vn 0.034337 0.999410 -0.000000
vn 0.991640 0.129036 -0.000000
vn 1.000000 0.000000 0.000000
vn 1.000000 0.000000 0.000000
vn 0.991640 0.129036 -0.000000
vn 0.000000 1.000000 0.000000
vn 0.000000 1.000000 0.000000
s 1
g pPlane35
usemtl initialShadingGroup
f 10/12/1 9/11/2 7/9/3 6/8/4
f 8/1/5 4/4/6 3/3/7 5/2/8
f 6/5/4 7/6/3 8/1/5 5/2/8
f 1/7/9 2/10/10 9/11/2 10/12/1
